﻿Key,Type,Value,Comment
:ref:`lights<lights>`,*str*,subfolder,"Name of subfolder containing light frames, e.g. light or lights or raw etc…."
:ref:`lightsfmt<lightsfmt>`,*str*,,Optional name for the converted sequence
:ref:`darks<darks>`,*str*,subfolder or path,"Name of folder containing dark frames: |br| |brl|
- either name of subfolder if you shoot darks with every session |br| |brl|
- or full path to your masterdarks library"
:ref:`darksfmt<darksfmt>`,*str*,,Name convention for masterdarks (for library only)
:ref:`biases<biases>`,*str*,subfolder or path,"Name of folder containing bias frames: |br| |brl|
- either name of subfolder if you shoot biases with every session |br| |brl|
- or an algebraic expression to use synthetic offsets |br| |brl|
- or full path to your masterbiases library"
:ref:`biasesfmt<darksfmt>`,*str*,,Name convention for masterbiases (for library only)
:ref:`copymasters<copymasters>`,*bool*,true/[false],"If true, hardcopy the masters in the masters subfolder"
