﻿Key,Type,Value,Comment
:ref:`folderin<folderin>`,*str*,process,The string to identify the folders to be searched for. Leave the default value *process* if your sessions have bee processed with GeSS.
:ref:`folderout<folderout>`,*str*,,The string to build folders names. They can contain FITS headers keys to be parsed (see below)
:ref:`levelup<levelup>`,*int*,>0,The number of levels up to store your files (see below)
:ref:`prefix<prefix>`,*str*,,Any prefix you would like to add to the calibrated lights names
:ref:`suffix<prefix>`,*str*,,Any suffix you would like to add to the calibrated lights names
:ref:`copyheader<copyheader>`,*bool*,false,"If true, it will find the original uncalibrated light frame and copy its full header to the calibrated frame."
:ref:`useoriginalFITSname<useoriginalFITSname>`,*bool*,false,"If true, it will replace the calibrated light frame name with that of the orginal uncalibrated frame."
:ref:`removepp<removepp>`,*bool*,false,"If true, it will remove the all the preprocessing prefixes (pp\_,ppd\_ etc…) from the calibrated frame name."
:ref:`onefolderperseq<onefolderperseq>`,*bool*,true,"If true, it will create one subfolder per sequence in :ref:`folderout<folderout>`"
